module GoLangExample

go 1.16

require (
	github.com/gin-gonic/gin v1.7.2 // indirect
	github.com/go-playground/validator/v10 v10.7.0 // indirect
	github.com/golang/protobuf v1.5.2 // indirect
	github.com/itsjamie/gin-cors v0.0.0-20160420130702-97b4a9da7933 // indirect
	github.com/json-iterator/go v1.1.11 // indirect
	github.com/leodido/go-urn v1.2.1 // indirect
	github.com/mattn/go-isatty v0.0.13 // indirect
	github.com/modern-go/concurrent v0.0.0-20180306012644-bacd9c7ef1dd // indirect
	github.com/modern-go/reflect2 v1.0.1 // indirect
	github.com/ugorji/go v1.2.6 // indirect
	go.mongodb.org/mongo-driver v1.6.0 // indirect
	golang.org/x/crypto v0.0.0-20210711020723-a769d52b0f97 // indirect
	golang.org/x/sys v0.0.0-20210630005230-0f9fa26af87c // indirect
	golang.org/x/text v0.3.6 // indirect
	google.golang.org/protobuf v1.27.1 // indirect
	gopkg.in/yaml.v2 v2.4.0 // indirect
)
